{
  "userinfo": {
    "verified_claims": [
      {
        "verification": {
          "trust_framework": {
            "value": "gold"
          },
          "evidence": [
            {
              "type": {
                "value": "id_document"
              }
            }
          ]
        },
        "claims": {
          "given_name": null,
          "family_name": null
        }
      },
      {
        "verification": {
          "trust_framework": {
            "values": [
              "silver",
              "bronze"
            ]
          },
          "evidence": [
            {
              "type": {
                "value": "utility_bill"
              }
            }
          ]
        },
        "claims": {
          "given_name": null,
          "family_name": null
        }
      }
    ]
  }
}